<?xml version="1.0" encoding="utf-8"?>
<!-- Generator: Adobe Illustrator 16.0.4, SVG Export Plug-In . SVG Version: 6.00 Build 0)  -->
<!DOCTYPE svg PUBLIC "-//W3C//DTD SVG 1.0//EN" "http://www.w3.org/TR/2001/REC-SVG-20010904/DTD/svg10.dtd">
<svg version="1.0" id="Layer_1" xmlns="http://www.w3.org/2000/svg" xmlns:xlink="http://www.w3.org/1999/xlink" x="0px" y="0px"
	 width="39px" height="24.481px" viewBox="0 0 39 24.481" enable-background="new 0 0 39 24.481" xml:space="preserve">
<g>
	<g>
		<path fill="#4A8897" d="M28.592,0.189c-2.871,0-5.476,1.169-7.36,3.057C25.875,4,29.524,7.72,30.173,12.397h5.291
			c-0.675,2.778-3.006,4.914-5.893,5.317c-0.458,1.199-1.12,2.294-1.949,3.245c0.32,0.029,0.643,0.049,0.97,0.049
			c5.739,0,10.408-4.67,10.408-10.409C39,4.859,34.331,0.189,28.592,0.189z M34.178,10.47c-0.71,0-1.285-0.577-1.285-1.287
			s0.575-1.285,1.285-1.285c0.711,0,1.286,0.575,1.286,1.285S34.889,10.47,34.178,10.47z"/>
		<path fill="#4A8897" d="M9.429,17.714c-2.884-0.404-5.216-2.54-5.892-5.317h5.29C9.476,7.719,13.125,4,17.77,3.246
			c-1.885-1.887-4.488-3.057-7.36-3.057C4.67,0.189,0,4.859,0,10.599c0,5.739,4.67,10.409,10.409,10.409
			c0.327,0,0.649-0.02,0.969-0.049C10.548,20.008,9.886,18.914,9.429,17.714z M4.822,7.899c0.711,0,1.286,0.575,1.286,1.285
			S5.533,10.47,4.822,10.47c-0.71,0-1.285-0.577-1.285-1.287S4.112,7.899,4.822,7.899z"/>
	</g>
	<g>
		<g>
			<path fill="#4A8897" d="M19.5,24.292c-5.738,0-10.408-4.67-10.408-10.409c0-5.74,4.67-10.41,10.408-10.41
				c5.739,0,10.409,4.669,10.409,10.41C29.909,19.622,25.239,24.292,19.5,24.292z"/>
		</g>
		<path fill="#FFFFFF" d="M25.086,13.753c0.711,0,1.287-0.576,1.287-1.286s-0.576-1.285-1.287-1.285
			c-0.71,0-1.285,0.575-1.285,1.285S24.376,13.753,25.086,13.753"/>
		<path fill="#FFFFFF" d="M13.914,13.753c0.711,0,1.286-0.576,1.286-1.286s-0.575-1.285-1.286-1.285
			c-0.71,0-1.285,0.575-1.285,1.285S13.204,13.753,13.914,13.753"/>
		<path fill="#FFFFFF" d="M19.5,21.083c3.331,0,6.123-2.314,6.873-5.401H12.629C13.381,18.768,16.17,21.083,19.5,21.083"/>
	</g>
</g>
</svg>
